Assignments/hw1/hw1_3/dump.vcd
$date
	Fri Sep 23 19:58:57 2022
$end
$version
	ModelSim Version 10.4d
$end
$timescale
	1ps
$end

$scope module seqdec_78_bench $end
$var reg 1 ! Inp $end
$var wire 1 " Clk $end
$var wire 1 # Reset $end
$var wire 1 $ Out $end
$var reg 128 % sequenc [127:0] $end
$var integer 32 & k $end
$var reg 8 ' seq [7:0] $end
$var reg 8 ( seqp1 [7:0] $end
$var wire 1 ) err $end

$scope module DUT $end
$var parameter 4 * S0 $end
$var parameter 4 + S1 $end
$var parameter 4 , S2 $end
$var parameter 4 - S3 $end
$var parameter 4 . S4 $end
$var parameter 4 / S5 $end
$var parameter 4 0 S6 $end
$var parameter 4 1 S7 $end
$var parameter 4 2 S8 $end
$var wire 1 3 Inp $end
$var wire 1 " Clk $end
$var wire 1 # Reset $end
$var wire 1 $ Out $end
$var wire 1 4 pst_state [3] $end
$var wire 1 5 pst_state [2] $end
$var wire 1 6 pst_state [1] $end
$var wire 1 7 pst_state [0] $end
$var wire 1 8 nxt_state [3] $end
$var wire 1 9 nxt_state [2] $end
$var wire 1 : nxt_state [1] $end
$var wire 1 ; nxt_state [0] $end
$var reg 4 < next [3:0] $end

$scope module g1 $end
$var wire 1 7 q $end
$var wire 1 ; d $end
$var wire 1 " clk $end
$var wire 1 # rst $end
$var reg 1 = state $end
$upscope $end

$scope module g2 $end
$var wire 1 6 q $end
$var wire 1 : d $end
$var wire 1 " clk $end
$var wire 1 # rst $end
$var reg 1 > state $end
$upscope $end

$scope module g3 $end
$var wire 1 5 q $end
$var wire 1 9 d $end
$var wire 1 " clk $end
$var wire 1 # rst $end
$var reg 1 ? state $end
$upscope $end

$scope module g4 $end
$var wire 1 4 q $end
$var wire 1 8 d $end
$var wire 1 " clk $end
$var wire 1 # rst $end
$var reg 1 @ state $end
$upscope $end
$upscope $end

$scope module my_ckrst $end
$var reg 1 A clk $end
$var reg 1 B rst $end
$var wire 1 ) err $end
$var integer 32 C cycle_count $end
$upscope $end
$upscope $end
$enddefinitions $end
#0
$dumpvars
0!
b1001101010001101010010111101010100010110010111100100110100010101111000001001101010010100101001001101111000001010101011 %
b0 '
b0 (
b0 <
0=
0>
0?
0@
1A
1B
b0 *
b1 +
b10 ,
b11 -
b100 .
b101 /
b110 0
b111 1
b1000 2
b0 &
b1 C
1"
1#
x$
0)
x7
x6
x5
x4
0;
0:
09
08
03
$end
#1
04
05
06
07
0$
#50
0A
0"
#100
1A
1"
b10 C
#150
0A
0"
#200
1A
1"
b11 C
#201
0B
0#
#250
0A
0"
#300
1A
1"
b1 &
b100 C
#350
0A
0"
#400
1A
1"
b10 &
b101 C
#450
0A
0"
#500
1A
1"
b11 &
b110 C
#550
0A
0"
#600
1A
1"
b100 &
b111 C
#650
0A
0"
#700
1A
1"
b101 &
b1000 C
#750
0A
0"
#800
1A
1"
b110 &
b1001 C
#850
0A
0"
#900
1A
1"
b111 &
b1010 C
#950
0A
0"
#1000
1A
1"
b1000 &
b1011 C
#1050
0A
0"
#1100
1A
1"
b1001 &
b1100 C
#1150
0A
0"
#1200
1A
1"
b1010 &
b1101 C
#1250
0A
0"
#1300
1A
1"
1!
b1011 &
b1110 C
13
b1 <
1;
b1 '
#1350
0A
0"
#1400
1A
1"
1=
0!
b1100 &
b1111 C
03
b0 <
0;
b11 '
b10 '
b1 (
#1401
17
b1 <
1;
#1450
0A
0"
#1500
1A
1"
b1101 &
b10000 C
b100 '
b10 (
#1550
0A
0"
#1600
1A
1"
1!
b1110 &
b10001 C
13
b10 <
0;
1:
b1000 '
b1001 '
b100 (
#1650
0A
0"
#1700
1A
1"
0=
1>
b1111 &
b10010 C
b10011 '
b1001 (
#1701
16
07
b11 <
1;
#1750
0A
0"
#1800
1A
1"
1=
0!
b10000 &
b10011 C
03
b1 <
0:
b100111 '
b100110 '
b10011 (
#1801
17
#1850
0A
0"
#1900
1A
1"
0>
1!
b10001 &
b10100 C
13
b100 <
0;
19
b1001100 '
b1001101 '
b100110 (
#1901
06
b10 <
1:
09
#1950
0A
0"
#2000
1A
1"
0=
1>
0!
b10010 &
b10101 C
03
b1 <
1;
0:
b10011011 '
b10011010 '
b1001101 (
#2001
16
07
#2050
0A
0"
#2100
1A
1"
1=
0>
1!
b10011 &
b10110 C
13
b11 <
1:
b110100 '
b110101 '
b10011010 (
#2101
06
17
b10 <
0;
#2150
0A
0"
#2200
1A
1"
0=
1>
0!
b10100 &
b10111 C
03
b1 <
1;
0:
b1101011 '
b1101010 '
b110101 (
#2201
16
07
#2250
0A
0"
#2300
1A
1"
1=
0>
b10101 &
b11000 C
b11010100 '
b1101010 (
#2301
06
17
#2350
0A
0"
#2400
1A
1"
b10110 &
b11001 C
b10101000 '
b11010100 (
#2450
0A
0"
#2500
1A
1"
1!
b10111 &
b11010 C
13
b10 <
0;
1:
b1010000 '
b1010001 '
b10101000 (
#2550
0A
0"
#2600
1A
1"
0=
1>
b11000 &
b11011 C
b10100011 '
b1010001 (
#2601
16
07
b11 <
1;
#2650
0A
0"
#2700
1A
1"
1=
0!
b11001 &
b11100 C
03
b1 <
0:
b1000111 '
b1000110 '
b10100011 (
#2701
17
#2750
0A
0"
#2800
1A
1"
0>
1!
b11010 &
b11101 C
13
b100 <
0;
19
b10001100 '
b10001101 '
b1000110 (
#2801
06
b10 <
1:
09
#2850
0A
0"
#2900
1A
1"
0=
1>
0!
b11011 &
b11110 C
03
b1 <
1;
0:
b11011 '
b11010 '
b10001101 (
#2901
16
07
#2950
0A
0"
#3000
1A
1"
1=
0>
1!
b11100 &
b11111 C
13
b11 <
1:
b110100 '
b110101 '
b11010 (
#3001
06
17
b10 <
0;
#3050
0A
0"
#3100
1A
1"
0=
1>
0!
b11101 &
b100000 C
03
b1 <
1;
0:
b1101011 '
b1101010 '
b110101 (
#3101
16
07
#3150
0A
0"
#3200
1A
1"
1=
0>
b11110 &
b100001 C
b11010100 '
b1101010 (
#3201
06
17
#3250
0A
0"
#3300
1A
1"
1!
b11111 &
b100010 C
13
b10 <
0;
1:
b10101000 '
b10101001 '
b11010100 (
#3350
0A
0"
#3400
1A
1"
0=
1>
0!
b100000 &
b100011 C
03
b1 <
1;
0:
b1010011 '
b1010010 '
b10101001 (
#3401
16
07
#3450
0A
0"
#3500
1A
1"
1=
0>
1!
b100001 &
b100100 C
13
b11 <
1:
b10100100 '
b10100101 '
b1010010 (
#3501
06
17
b10 <
0;
#3550
0A
0"
#3600
1A
1"
0=
1>
b100010 &
b100101 C
b1001011 '
b10100101 (
#3601
16
07
b11 <
1;
#3650
0A
0"
#3700
1A
1"
1=
b100011 &
b100110 C
b10010111 '
b1001011 (
#3701
17
b100 <
0;
0:
19
#3750
0A
0"
#3800
1A
1"
0=
0>
1?
b100100 &
b100111 C
b101111 '
b10010111 (
#3801
15
06
07
b101 <
1;
#3850
0A
0"
#3900
1A
1"
1=
0!
b100101 &
b101000 C
03
b1 <
09
b1011111 '
b1011110 '
b101111 (
#3901
17
b110 <
0;
1:
19
#3950
0A
0"
#4000
1A
1"
0=
1>
1!
b100110 &
b101001 C
13
b0 <
0:
09
b10111100 '
b10111101 '
b1011110 (
#4001
16
07
b10 <
1:
#4050
0A
0"
#4100
1A
1"
0?
0!
b100111 &
b101010 C
03
b111 <
1;
19
b1111011 '
b1111010 '
b10111101 (
#4101
05
b1 <
0:
09
#4150
0A
0"
#4200
1A
1"
1=
0>
1!
b101000 &
b101011 C
13
b11 <
1:
b11110100 '
b11110101 '
b1111010 (
#4201
06
17
b10 <
0;
#4250
0A
0"
#4300
1A
1"
0=
1>
0!
b101001 &
b101100 C
03
b1 <
1;
0:
b11101011 '
b11101010 '
b11110101 (
#4301
16
07
#4350
0A
0"
#4400
1A
1"
1=
0>
1!
b101010 &
b101101 C
13
b11 <
1:
b11010100 '
b11010101 '
b11101010 (
#4401
06
17
b10 <
0;
#4450
0A
0"
#4500
1A
1"
0=
1>
0!
b101011 &
b101110 C
03
b1 <
1;
0:
b10101011 '
b10101010 '
b11010101 (
#4501
16
07
#4550
0A
0"
#4600
1A
1"
1=
0>
b101100 &
b101111 C
b1010100 '
b10101010 (
#4601
06
17
#4650
0A
0"
#4700
1A
1"
b101101 &
b110000 C
b10101000 '
b1010100 (
#4750
0A
0"
#4800
1A
1"
1!
b101110 &
b110001 C
13
b10 <
0;
1:
b1010000 '
b1010001 '
b10101000 (
#4850
0A
0"
#4900
1A
1"
0=
1>
0!
b101111 &
b110010 C
03
b1 <
1;
0:
b10100011 '
b10100010 '
b1010001 (
#4901
16
07
#4950
0A
0"
#5000
1A
1"
1=
0>
1!
b110000 &
b110011 C
13
b11 <
1:
b1000100 '
b1000101 '
b10100010 (
#5001
06
17
b10 <
0;
#5050
0A
0"
#5100
1A
1"
0=
1>
b110001 &
b110100 C
b10001011 '
b1000101 (
#5101
16
07
b11 <
1;
#5150
0A
0"
#5200
1A
1"
1=
0!
b110010 &
b110101 C
03
b1 <
0:
b10111 '
b10110 '
b10001011 (
#5201
17
#5250
0A
0"
#5300
1A
1"
0>
b110011 &
b110110 C
b101100 '
b10110 (
#5301
06
#5350
0A
0"
#5400
1A
1"
1!
b110100 &
b110111 C
13
b10 <
0;
1:
b1011000 '
b1011001 '
b101100 (
#5450
0A
0"
#5500
1A
1"
0=
1>
0!
b110101 &
b111000 C
03
b1 <
1;
0:
b10110011 '
b10110010 '
b1011001 (
#5501
16
07
#5550
0A
0"
#5600
1A
1"
1=
0>
1!
b110110 &
b111001 C
13
b11 <
1:
b1100100 '
b1100101 '
b10110010 (
#5601
06
17
b10 <
0;
#5650
0A
0"
#5700
1A
1"
0=
1>
b110111 &
b111010 C
b11001011 '
b1100101 (
#5701
16
07
b11 <
1;
#5750
0A
0"
#5800
1A
1"
1=
b111000 &
b111011 C
b10010111 '
b11001011 (
#5801
17
b100 <
0;
0:
19
#5850
0A
0"
#5900
1A
1"
0=
0>
1?
b111001 &
b111100 C
b101111 '
b10010111 (
#5901
15
06
07
b101 <
1;
#5950
0A
0"
#6000
1A
1"
1=
0!
b111010 &
b111101 C
03
b1 <
09
b1011111 '
b1011110 '
b101111 (
#6001
17
b110 <
0;
1:
19
#6050
0A
0"
#6100
1A
1"
0=
1>
b111011 &
b111110 C
b10111100 '
b1011110 (
#6101
16
07
b111 <
1;
#6150
0A
0"
#6200
1A
1"
1=
1!
b111100 &
b111111 C
13
b10 <
0;
09
b1111000 '
b1111001 '
b10111100 (
#6201
17
#6250
0A
0"
#6300
1A
1"
0=
0?
0!
b111101 &
b1000000 C
03
b1000 <
0:
18
b11110011 '
b11110010 '
b1111001 (
#6301
05
07
b1 <
1;
08
#6350
0A
0"
#6400
1A
1"
1=
0>
b111110 &
b1000001 C
b11100100 '
b11110010 (
#6401
06
17
#6450
0A
0"
#6500
1A
1"
1!
b111111 &
b1000010 C
13
b10 <
0;
1:
b11001000 '
b11001001 '
b11100100 (
#6550
0A
0"
#6600
1A
1"
0=
1>
b1000000 &
b1000011 C
b10010011 '
b11001001 (
#6601
16
07
b11 <
1;
#6650
0A
0"
#6700
1A
1"
1=
0!
b1000001 &
b1000100 C
03
b1 <
0:
b100111 '
b100110 '
b10010011 (
#6701
17
#6750
0A
0"
#6800
1A
1"
0>
1!
b1000010 &
b1000101 C
13
b100 <
0;
19
b1001100 '
b1001101 '
b100110 (
#6801
06
b10 <
1:
09
#6850
0A
0"
#6900
1A
1"
0=
1>
0!
b1000011 &
b1000110 C
03
b1 <
1;
0:
b10011011 '
b10011010 '
b1001101 (
#6901
16
07
#6950
0A
0"
#7000
1A
1"
1=
0>
b1000100 &
b1000111 C
b110100 '
b10011010 (
#7001
06
17
#7050
0A
0"
#7100
1A
1"
b1000101 &
b1001000 C
b1101000 '
b110100 (
#7150
0A
0"
#7200
1A
1"
1!
b1000110 &
b1001001 C
13
b10 <
0;
1:
b11010000 '
b11010001 '
b1101000 (
#7250
0A
0"
#7300
1A
1"
0=
1>
0!
b1000111 &
b1001010 C
03
b1 <
1;
0:
b10100011 '
b10100010 '
b11010001 (
#7301
16
07
#7350
0A
0"
#7400
1A
1"
1=
0>
1!
b1001000 &
b1001011 C
13
b11 <
1:
b1000100 '
b1000101 '
b10100010 (
#7401
06
17
b10 <
0;
#7450
0A
0"
#7500
1A
1"
0=
1>
0!
b1001001 &
b1001100 C
03
b1 <
1;
0:
b10001011 '
b10001010 '
b1000101 (
#7501
16
07
#7550
0A
0"
#7600
1A
1"
1=
0>
1!
b1001010 &
b1001101 C
13
b11 <
1:
b10100 '
b10101 '
b10001010 (
#7601
06
17
b10 <
0;
#7650
0A
0"
#7700
1A
1"
0=
1>
b1001011 &
b1001110 C
b101011 '
b10101 (
#7701
16
07
b11 <
1;
#7750
0A
0"
#7800
1A
1"
1=
b1001100 &
b1001111 C
b1010111 '
b101011 (
#7801
17
b100 <
0;
0:
19
#7850
0A
0"
#7900
1A
1"
0=
0>
1?
b1001101 &
b1010000 C
b10101111 '
b1010111 (
#7901
15
06
07
b101 <
1;
#7950
0A
0"
#8000
1A
1"
1=
0!
b1001110 &
b1010001 C
03
b1 <
09
b1011111 '
b1011110 '
b10101111 (
#8001
17
b110 <
0;
1:
19
#8050
0A
0"
#8100
1A
1"
0=
1>
b1001111 &
b1010010 C
b10111100 '
b1011110 (
#8101
16
07
b111 <
1;
#8150
0A
0"
#8200
1A
1"
1=
b1010000 &
b1010011 C
b1111000 '
b10111100 (
#8201
17
b1000 <
0;
0:
09
18
#8250
0A
0"
#8300
1A
1"
0=
0>
0?
1@
b1010001 &
b1010100 C
b11110000 '
b1111000 (
#8301
14
05
06
07
1$
b1 <
1;
08
#8350
0A
0"
#8400
1A
1"
1=
0@
b1010010 &
b1010101 C
b11100000 '
b11110000 (
#8401
04
17
0$
#8450
0A
0"
#8500
1A
1"
1!
b1010011 &
b1010110 C
13
b10 <
0;
1:
b11000000 '
b11000001 '
b11100000 (
#8550
0A
0"
#8600
1A
1"
0=
1>
0!
b1010100 &
b1010111 C
03
b1 <
1;
0:
b10000011 '
b10000010 '
b11000001 (
#8601
16
07
#8650
0A
0"
#8700
1A
1"
1=
0>
b1010101 &
b1011000 C
b100 '
b10000010 (
#8701
06
17
#8750
0A
0"
#8800
1A
1"
1!
b1010110 &
b1011001 C
13
b10 <
0;
1:
b1000 '
b1001 '
b100 (
#8850
0A
0"
#8900
1A
1"
0=
1>
b1010111 &
b1011010 C
b10011 '
b1001 (
#8901
16
07
b11 <
1;
#8950
0A
0"
#9000
1A
1"
1=
0!
b1011000 &
b1011011 C
03
b1 <
0:
b100111 '
b100110 '
b10011 (
#9001
17
#9050
0A
0"
#9100
1A
1"
0>
1!
b1011001 &
b1011100 C
13
b100 <
0;
19
b1001100 '
b1001101 '
b100110 (
#9101
06
b10 <
1:
09
#9150
0A
0"
#9200
1A
1"
0=
1>
0!
b1011010 &
b1011101 C
03
b1 <
1;
0:
b10011011 '
b10011010 '
b1001101 (
#9201
16
07
#9250
0A
0"
#9300
1A
1"
1=
0>
1!
b1011011 &
b1011110 C
13
b11 <
1:
b110100 '
b110101 '
b10011010 (
#9301
06
17
b10 <
0;
#9350
0A
0"
#9400
1A
1"
0=
1>
0!
b1011100 &
b1011111 C
03
b1 <
1;
0:
b1101011 '
b1101010 '
b110101 (
#9401
16
07
#9450
0A
0"
#9500
1A
1"
1=
0>
b1011101 &
b1100000 C
b11010100 '
b1101010 (
#9501
06
17
#9550
0A
0"
#9600
1A
1"
1!
b1011110 &
b1100001 C
13
b10 <
0;
1:
b10101000 '
b10101001 '
b11010100 (
#9650
0A
0"
#9700
1A
1"
0=
1>
0!
b1011111 &
b1100010 C
03
b1 <
1;
0:
b1010011 '
b1010010 '
b10101001 (
#9701
16
07
#9750
0A
0"
#9800
1A
1"
1=
0>
1!
b1100000 &
b1100011 C
13
b11 <
1:
b10100100 '
b10100101 '
b1010010 (
#9801
06
17
b10 <
0;
#9850
0A
0"
#9900
1A
1"
0=
1>
0!
b1100001 &
b1100100 C
03
b1 <
1;
0:
b1001011 '
b1001010 '
b10100101 (
#9901
16
07
#9950
0A
0"
#10000
1A
1"
1=
0>
b1100010 &
b1100101 C
b10010100 '
b1001010 (
