Assignments/hw2/hw2_1/dump.vcd
$date
	Tue Oct 11 18:28:39 2022
$end
$version
	ModelSim Version 10.4d
$end
$timescale
	1ps
$end

$scope module cla_16b_bench $end
$var reg 17 ! A [16:0] $end
$var reg 17 " B [16:0] $end
$var reg 17 # Sumcalc [16:0] $end
$var reg 1 $ c_in $end
$var wire 1 % SUM [15] $end
$var wire 1 & SUM [14] $end
$var wire 1 ' SUM [13] $end
$var wire 1 ( SUM [12] $end
$var wire 1 ) SUM [11] $end
$var wire 1 * SUM [10] $end
$var wire 1 + SUM [9] $end
$var wire 1 , SUM [8] $end
$var wire 1 - SUM [7] $end
$var wire 1 . SUM [6] $end
$var wire 1 / SUM [5] $end
$var wire 1 0 SUM [4] $end
$var wire 1 1 SUM [3] $end
$var wire 1 2 SUM [2] $end
$var wire 1 3 SUM [1] $end
$var wire 1 4 SUM [0] $end
$var wire 1 5 CO $end
$var wire 1 6 Clk $end
$var wire 1 7 rst $end
$var wire 1 8 err $end

$scope module my_clkrst $end
$var reg 1 9 clk $end
$var reg 1 : rst $end
$var wire 1 8 err $end
$var integer 32 ; cycle_count $end
$upscope $end

$scope module DUT $end
$var parameter 32 < N $end
$var wire 1 % sum [15] $end
$var wire 1 & sum [14] $end
$var wire 1 ' sum [13] $end
$var wire 1 ( sum [12] $end
$var wire 1 ) sum [11] $end
$var wire 1 * sum [10] $end
$var wire 1 + sum [9] $end
$var wire 1 , sum [8] $end
$var wire 1 - sum [7] $end
$var wire 1 . sum [6] $end
$var wire 1 / sum [5] $end
$var wire 1 0 sum [4] $end
$var wire 1 1 sum [3] $end
$var wire 1 2 sum [2] $end
$var wire 1 3 sum [1] $end
$var wire 1 4 sum [0] $end
$var wire 1 5 c_out $end
$var wire 1 = a [15] $end
$var wire 1 > a [14] $end
$var wire 1 ? a [13] $end
$var wire 1 @ a [12] $end
$var wire 1 A a [11] $end
$var wire 1 B a [10] $end
$var wire 1 C a [9] $end
$var wire 1 D a [8] $end
$var wire 1 E a [7] $end
$var wire 1 F a [6] $end
$var wire 1 G a [5] $end
$var wire 1 H a [4] $end
$var wire 1 I a [3] $end
$var wire 1 J a [2] $end
$var wire 1 K a [1] $end
$var wire 1 L a [0] $end
$var wire 1 M b [15] $end
$var wire 1 N b [14] $end
$var wire 1 O b [13] $end
$var wire 1 P b [12] $end
$var wire 1 Q b [11] $end
$var wire 1 R b [10] $end
$var wire 1 S b [9] $end
$var wire 1 T b [8] $end
$var wire 1 U b [7] $end
$var wire 1 V b [6] $end
$var wire 1 W b [5] $end
$var wire 1 X b [4] $end
$var wire 1 Y b [3] $end
$var wire 1 Z b [2] $end
$var wire 1 [ b [1] $end
$var wire 1 \ b [0] $end
$var wire 1 ] c_in $end
$var wire 1 ^ W [3] $end
$var wire 1 _ W [2] $end
$var wire 1 ` W [1] $end

$scope module FLL0_3 $end
$var parameter 32 a N $end
$var wire 1 1 sum [3] $end
$var wire 1 2 sum [2] $end
$var wire 1 3 sum [1] $end
$var wire 1 4 sum [0] $end
$var wire 1 ` c_out $end
$var wire 1 I a [3] $end
$var wire 1 J a [2] $end
$var wire 1 K a [1] $end
$var wire 1 L a [0] $end
$var wire 1 Y b [3] $end
$var wire 1 Z b [2] $end
$var wire 1 [ b [1] $end
$var wire 1 \ b [0] $end
$var wire 1 ] c_in $end
$var wire 1 b P [0] $end
$var wire 1 c P [1] $end
$var wire 1 d P [2] $end
$var wire 1 e P [3] $end
$var wire 1 f G [0] $end
$var wire 1 g G [1] $end
$var wire 1 h G [2] $end
$var wire 1 i G [3] $end
$var wire 1 j C [4] $end
$var wire 1 k C [3] $end
$var wire 1 l C [2] $end
$var wire 1 m C [1] $end
$var wire 1 n y1 $end
$var wire 1 o y2 $end
$var wire 1 p y3 $end
$var wire 1 q y4 $end
$var wire 1 r y5 $end
$var wire 1 s y6 $end
$var wire 1 t y7 $end
$var wire 1 u y8 $end
$var wire 1 v y9 $end
$var wire 1 w y10 $end

$scope module iDUT_1 $end
$var wire 1 L a $end
$var wire 1 \ b $end
$var wire 1 ] c_in $end
$var wire 1 4 s $end
$var wire 1 x c_out $end
$var wire 1 y w1 $end
$var wire 1 z w2 $end
$var wire 1 { w3 $end

$scope module N1 $end
$var wire 1 y out $end
$var wire 1 L in1 $end
$var wire 1 \ in2 $end
$upscope $end

$scope module N2 $end
$var wire 1 4 out $end
$var wire 1 y in1 $end
$var wire 1 ] in2 $end
$upscope $end

$scope module NA1 $end
$var wire 1 z out $end
$var wire 1 L in1 $end
$var wire 1 \ in2 $end
$upscope $end

$scope module NA2 $end
$var wire 1 { out $end
$var wire 1 ] in1 $end
$var wire 1 y in2 $end
$upscope $end

$scope module NA3 $end
$var wire 1 x out $end
$var wire 1 z in1 $end
$var wire 1 { in2 $end
$upscope $end
$upscope $end

$scope module iDUT_2 $end
$var wire 1 K a $end
$var wire 1 [ b $end
$var wire 1 m c_in $end
$var wire 1 3 s $end
$var wire 1 | c_out $end
$var wire 1 } w1 $end
$var wire 1 ~ w2 $end
$var wire 1 !! w3 $end

$scope module N1 $end
$var wire 1 } out $end
$var wire 1 K in1 $end
$var wire 1 [ in2 $end
$upscope $end

$scope module N2 $end
$var wire 1 3 out $end
$var wire 1 } in1 $end
$var wire 1 m in2 $end
$upscope $end

$scope module NA1 $end
$var wire 1 ~ out $end
$var wire 1 K in1 $end
$var wire 1 [ in2 $end
$upscope $end

$scope module NA2 $end
$var wire 1 !! out $end
$var wire 1 m in1 $end
$var wire 1 } in2 $end
$upscope $end

$scope module NA3 $end
$var wire 1 | out $end
$var wire 1 ~ in1 $end
$var wire 1 !! in2 $end
$upscope $end
$upscope $end

$scope module iDUT_3 $end
$var wire 1 J a $end
$var wire 1 Z b $end
$var wire 1 l c_in $end
$var wire 1 2 s $end
$var wire 1 "! c_out $end
$var wire 1 #! w1 $end
$var wire 1 $! w2 $end
$var wire 1 %! w3 $end

$scope module N1 $end
$var wire 1 #! out $end
$var wire 1 J in1 $end
$var wire 1 Z in2 $end
$upscope $end

$scope module N2 $end
$var wire 1 2 out $end
$var wire 1 #! in1 $end
$var wire 1 l in2 $end
$upscope $end

$scope module NA1 $end
$var wire 1 $! out $end
$var wire 1 J in1 $end
$var wire 1 Z in2 $end
$upscope $end

$scope module NA2 $end
$var wire 1 %! out $end
$var wire 1 l in1 $end
$var wire 1 #! in2 $end
$upscope $end

$scope module NA3 $end
$var wire 1 "! out $end
$var wire 1 $! in1 $end
$var wire 1 %! in2 $end
$upscope $end
$upscope $end

$scope module iDUT_4 $end
$var wire 1 I a $end
$var wire 1 Y b $end
$var wire 1 k c_in $end
$var wire 1 1 s $end
$var wire 1 &! c_out $end
$var wire 1 '! w1 $end
$var wire 1 (! w2 $end
$var wire 1 )! w3 $end

$scope module N1 $end
$var wire 1 '! out $end
$var wire 1 I in1 $end
$var wire 1 Y in2 $end
$upscope $end

$scope module N2 $end
$var wire 1 1 out $end
$var wire 1 '! in1 $end
$var wire 1 k in2 $end
$upscope $end

$scope module NA1 $end
$var wire 1 (! out $end
$var wire 1 I in1 $end
$var wire 1 Y in2 $end
$upscope $end

$scope module NA2 $end
$var wire 1 )! out $end
$var wire 1 k in1 $end
$var wire 1 '! in2 $end
$upscope $end

$scope module NA3 $end
$var wire 1 &! out $end
$var wire 1 (! in1 $end
$var wire 1 )! in2 $end
$upscope $end
$upscope $end
$upscope $end

$scope module FLL4_7 $end
$var parameter 32 *! N $end
$var wire 1 - sum [3] $end
$var wire 1 . sum [2] $end
$var wire 1 / sum [1] $end
$var wire 1 0 sum [0] $end
$var wire 1 _ c_out $end
$var wire 1 E a [3] $end
$var wire 1 F a [2] $end
$var wire 1 G a [1] $end
$var wire 1 H a [0] $end
$var wire 1 U b [3] $end
$var wire 1 V b [2] $end
$var wire 1 W b [1] $end
$var wire 1 X b [0] $end
$var wire 1 ` c_in $end
$var wire 1 +! P [0] $end
$var wire 1 ,! P [1] $end
$var wire 1 -! P [2] $end
$var wire 1 .! P [3] $end
$var wire 1 /! G [0] $end
$var wire 1 0! G [1] $end
$var wire 1 1! G [2] $end
$var wire 1 2! G [3] $end
$var wire 1 3! C [4] $end
$var wire 1 4! C [3] $end
$var wire 1 5! C [2] $end
$var wire 1 6! C [1] $end
$var wire 1 7! y1 $end
$var wire 1 8! y2 $end
$var wire 1 9! y3 $end
$var wire 1 :! y4 $end
$var wire 1 ;! y5 $end
$var wire 1 <! y6 $end
$var wire 1 =! y7 $end
$var wire 1 >! y8 $end
$var wire 1 ?! y9 $end
$var wire 1 @! y10 $end

$scope module iDUT_1 $end
$var wire 1 H a $end
$var wire 1 X b $end
$var wire 1 ` c_in $end
$var wire 1 0 s $end
$var wire 1 A! c_out $end
$var wire 1 B! w1 $end
$var wire 1 C! w2 $end
$var wire 1 D! w3 $end

$scope module N1 $end
$var wire 1 B! out $end
$var wire 1 H in1 $end
$var wire 1 X in2 $end
$upscope $end

$scope module N2 $end
$var wire 1 0 out $end
$var wire 1 B! in1 $end
$var wire 1 ` in2 $end
$upscope $end

$scope module NA1 $end
$var wire 1 C! out $end
$var wire 1 H in1 $end
$var wire 1 X in2 $end
$upscope $end

$scope module NA2 $end
$var wire 1 D! out $end
$var wire 1 ` in1 $end
$var wire 1 B! in2 $end
$upscope $end

$scope module NA3 $end
$var wire 1 A! out $end
$var wire 1 C! in1 $end
$var wire 1 D! in2 $end
$upscope $end
$upscope $end

$scope module iDUT_2 $end
$var wire 1 G a $end
$var wire 1 W b $end
$var wire 1 6! c_in $end
$var wire 1 / s $end
$var wire 1 E! c_out $end
$var wire 1 F! w1 $end
$var wire 1 G! w2 $end
$var wire 1 H! w3 $end

$scope module N1 $end
$var wire 1 F! out $end
$var wire 1 G in1 $end
$var wire 1 W in2 $end
$upscope $end

$scope module N2 $end
$var wire 1 / out $end
$var wire 1 F! in1 $end
$var wire 1 6! in2 $end
$upscope $end

$scope module NA1 $end
$var wire 1 G! out $end
$var wire 1 G in1 $end
$var wire 1 W in2 $end
$upscope $end

$scope module NA2 $end
$var wire 1 H! out $end
$var wire 1 6! in1 $end
$var wire 1 F! in2 $end
$upscope $end

$scope module NA3 $end
$var wire 1 E! out $end
$var wire 1 G! in1 $end
$var wire 1 H! in2 $end
$upscope $end
$upscope $end

$scope module iDUT_3 $end
$var wire 1 F a $end
$var wire 1 V b $end
$var wire 1 5! c_in $end
$var wire 1 . s $end
$var wire 1 I! c_out $end
$var wire 1 J! w1 $end
$var wire 1 K! w2 $end
$var wire 1 L! w3 $end

$scope module N1 $end
$var wire 1 J! out $end
$var wire 1 F in1 $end
$var wire 1 V in2 $end
$upscope $end

$scope module N2 $end
$var wire 1 . out $end
$var wire 1 J! in1 $end
$var wire 1 5! in2 $end
$upscope $end

$scope module NA1 $end
$var wire 1 K! out $end
$var wire 1 F in1 $end
$var wire 1 V in2 $end
$upscope $end

$scope module NA2 $end
$var wire 1 L! out $end
$var wire 1 5! in1 $end
$var wire 1 J! in2 $end
$upscope $end

$scope module NA3 $end
$var wire 1 I! out $end
$var wire 1 K! in1 $end
$var wire 1 L! in2 $end
$upscope $end
$upscope $end

$scope module iDUT_4 $end
$var wire 1 E a $end
$var wire 1 U b $end
$var wire 1 4! c_in $end
$var wire 1 - s $end
$var wire 1 M! c_out $end
$var wire 1 N! w1 $end
$var wire 1 O! w2 $end
$var wire 1 P! w3 $end

$scope module N1 $end
$var wire 1 N! out $end
$var wire 1 E in1 $end
$var wire 1 U in2 $end
$upscope $end

$scope module N2 $end
$var wire 1 - out $end
$var wire 1 N! in1 $end
$var wire 1 4! in2 $end
$upscope $end

$scope module NA1 $end
$var wire 1 O! out $end
$var wire 1 E in1 $end
$var wire 1 U in2 $end
$upscope $end

$scope module NA2 $end
$var wire 1 P! out $end
$var wire 1 4! in1 $end
$var wire 1 N! in2 $end
$upscope $end

$scope module NA3 $end
$var wire 1 M! out $end
$var wire 1 O! in1 $end
$var wire 1 P! in2 $end
$upscope $end
$upscope $end
$upscope $end

$scope module FLL8_11 $end
$var parameter 32 Q! N $end
$var wire 1 ) sum [3] $end
$var wire 1 * sum [2] $end
$var wire 1 + sum [1] $end
$var wire 1 , sum [0] $end
$var wire 1 ^ c_out $end
$var wire 1 A a [3] $end
$var wire 1 B a [2] $end
$var wire 1 C a [1] $end
$var wire 1 D a [0] $end
$var wire 1 Q b [3] $end
$var wire 1 R b [2] $end
$var wire 1 S b [1] $end
$var wire 1 T b [0] $end
$var wire 1 _ c_in $end
$var wire 1 R! P [0] $end
$var wire 1 S! P [1] $end
$var wire 1 T! P [2] $end
$var wire 1 U! P [3] $end
$var wire 1 V! G [0] $end
$var wire 1 W! G [1] $end
$var wire 1 X! G [2] $end
$var wire 1 Y! G [3] $end
$var wire 1 Z! C [4] $end
$var wire 1 [! C [3] $end
$var wire 1 \! C [2] $end
$var wire 1 ]! C [1] $end
$var wire 1 ^! y1 $end
$var wire 1 _! y2 $end
$var wire 1 `! y3 $end
$var wire 1 a! y4 $end
$var wire 1 b! y5 $end
$var wire 1 c! y6 $end
$var wire 1 d! y7 $end
$var wire 1 e! y8 $end
$var wire 1 f! y9 $end
$var wire 1 g! y10 $end

$scope module iDUT_1 $end
$var wire 1 D a $end
$var wire 1 T b $end
$var wire 1 _ c_in $end
$var wire 1 , s $end
$var wire 1 h! c_out $end
$var wire 1 i! w1 $end
$var wire 1 j! w2 $end
$var wire 1 k! w3 $end

$scope module N1 $end
$var wire 1 i! out $end
$var wire 1 D in1 $end
$var wire 1 T in2 $end
$upscope $end

$scope module N2 $end
$var wire 1 , out $end
$var wire 1 i! in1 $end
$var wire 1 _ in2 $end
$upscope $end

$scope module NA1 $end
$var wire 1 j! out $end
$var wire 1 D in1 $end
$var wire 1 T in2 $end
$upscope $end

$scope module NA2 $end
$var wire 1 k! out $end
$var wire 1 _ in1 $end
$var wire 1 i! in2 $end
$upscope $end

$scope module NA3 $end
$var wire 1 h! out $end
$var wire 1 j! in1 $end
$var wire 1 k! in2 $end
$upscope $end
$upscope $end

$scope module iDUT_2 $end
$var wire 1 C a $end
$var wire 1 S b $end
$var wire 1 ]! c_in $end
$var wire 1 + s $end
$var wire 1 l! c_out $end
$var wire 1 m! w1 $end
$var wire 1 n! w2 $end
$var wire 1 o! w3 $end

$scope module N1 $end
$var wire 1 m! out $end
$var wire 1 C in1 $end
$var wire 1 S in2 $end
$upscope $end

$scope module N2 $end
$var wire 1 + out $end
$var wire 1 m! in1 $end
$var wire 1 ]! in2 $end
$upscope $end

$scope module NA1 $end
$var wire 1 n! out $end
$var wire 1 C in1 $end
$var wire 1 S in2 $end
$upscope $end

$scope module NA2 $end
$var wire 1 o! out $end
$var wire 1 ]! in1 $end
$var wire 1 m! in2 $end
$upscope $end

$scope module NA3 $end
$var wire 1 l! out $end
$var wire 1 n! in1 $end
$var wire 1 o! in2 $end
$upscope $end
$upscope $end

$scope module iDUT_3 $end
$var wire 1 B a $end
$var wire 1 R b $end
$var wire 1 \! c_in $end
$var wire 1 * s $end
$var wire 1 p! c_out $end
$var wire 1 q! w1 $end
$var wire 1 r! w2 $end
$var wire 1 s! w3 $end

$scope module N1 $end
$var wire 1 q! out $end
$var wire 1 B in1 $end
$var wire 1 R in2 $end
$upscope $end

$scope module N2 $end
$var wire 1 * out $end
$var wire 1 q! in1 $end
$var wire 1 \! in2 $end
$upscope $end

$scope module NA1 $end
$var wire 1 r! out $end
$var wire 1 B in1 $end
$var wire 1 R in2 $end
$upscope $end

$scope module NA2 $end
$var wire 1 s! out $end
$var wire 1 \! in1 $end
$var wire 1 q! in2 $end
$upscope $end

$scope module NA3 $end
$var wire 1 p! out $end
$var wire 1 r! in1 $end
$var wire 1 s! in2 $end
$upscope $end
$upscope $end

$scope module iDUT_4 $end
$var wire 1 A a $end
$var wire 1 Q b $end
$var wire 1 [! c_in $end
$var wire 1 ) s $end
$var wire 1 t! c_out $end
$var wire 1 u! w1 $end
$var wire 1 v! w2 $end
$var wire 1 w! w3 $end

$scope module N1 $end
$var wire 1 u! out $end
$var wire 1 A in1 $end
$var wire 1 Q in2 $end
$upscope $end

$scope module N2 $end
$var wire 1 ) out $end
$var wire 1 u! in1 $end
$var wire 1 [! in2 $end
$upscope $end

$scope module NA1 $end
$var wire 1 v! out $end
$var wire 1 A in1 $end
$var wire 1 Q in2 $end
$upscope $end

$scope module NA2 $end
$var wire 1 w! out $end
$var wire 1 [! in1 $end
$var wire 1 u! in2 $end
$upscope $end

$scope module NA3 $end
$var wire 1 t! out $end
$var wire 1 v! in1 $end
$var wire 1 w! in2 $end
$upscope $end
$upscope $end
$upscope $end

$scope module FLL12_15 $end
$var parameter 32 x! N $end
$var wire 1 % sum [3] $end
$var wire 1 & sum [2] $end
$var wire 1 ' sum [1] $end
$var wire 1 ( sum [0] $end
$var wire 1 5 c_out $end
$var wire 1 = a [3] $end
$var wire 1 > a [2] $end
$var wire 1 ? a [1] $end
$var wire 1 @ a [0] $end
$var wire 1 M b [3] $end
$var wire 1 N b [2] $end
$var wire 1 O b [1] $end
$var wire 1 P b [0] $end
$var wire 1 ^ c_in $end
$var wire 1 y! P [0] $end
$var wire 1 z! P [1] $end
$var wire 1 {! P [2] $end
$var wire 1 |! P [3] $end
$var wire 1 }! G [0] $end
$var wire 1 ~! G [1] $end
$var wire 1 !" G [2] $end
$var wire 1 "" G [3] $end
$var wire 1 #" C [4] $end
$var wire 1 $" C [3] $end
$var wire 1 %" C [2] $end
$var wire 1 &" C [1] $end
$var wire 1 '" y1 $end
$var wire 1 (" y2 $end
$var wire 1 )" y3 $end
$var wire 1 *" y4 $end
$var wire 1 +" y5 $end
$var wire 1 ," y6 $end
$var wire 1 -" y7 $end
$var wire 1 ." y8 $end
$var wire 1 /" y9 $end
$var wire 1 0" y10 $end

$scope module iDUT_1 $end
$var wire 1 @ a $end
$var wire 1 P b $end
$var wire 1 ^ c_in $end
$var wire 1 ( s $end
$var wire 1 1" c_out $end
$var wire 1 2" w1 $end
$var wire 1 3" w2 $end
$var wire 1 4" w3 $end

$scope module N1 $end
$var wire 1 2" out $end
$var wire 1 @ in1 $end
$var wire 1 P in2 $end
$upscope $end

$scope module N2 $end
$var wire 1 ( out $end
$var wire 1 2" in1 $end
$var wire 1 ^ in2 $end
$upscope $end

$scope module NA1 $end
$var wire 1 3" out $end
$var wire 1 @ in1 $end
$var wire 1 P in2 $end
$upscope $end

$scope module NA2 $end
$var wire 1 4" out $end
$var wire 1 ^ in1 $end
$var wire 1 2" in2 $end
$upscope $end

$scope module NA3 $end
$var wire 1 1" out $end
$var wire 1 3" in1 $end
$var wire 1 4" in2 $end
$upscope $end
$upscope $end

$scope module iDUT_2 $end
$var wire 1 ? a $end
$var wire 1 O b $end
$var wire 1 &" c_in $end
$var wire 1 ' s $end
$var wire 1 5" c_out $end
$var wire 1 6" w1 $end
$var wire 1 7" w2 $end
$var wire 1 8" w3 $end

$scope module N1 $end
$var wire 1 6" out $end
$var wire 1 ? in1 $end
$var wire 1 O in2 $end
$upscope $end

$scope module N2 $end
$var wire 1 ' out $end
$var wire 1 6" in1 $end
$var wire 1 &" in2 $end
$upscope $end

$scope module NA1 $end
$var wire 1 7" out $end
$var wire 1 ? in1 $end
$var wire 1 O in2 $end
$upscope $end

$scope module NA2 $end
$var wire 1 8" out $end
$var wire 1 &" in1 $end
$var wire 1 6" in2 $end
$upscope $end

$scope module NA3 $end
$var wire 1 5" out $end
$var wire 1 7" in1 $end
$var wire 1 8" in2 $end
$upscope $end
$upscope $end

$scope module iDUT_3 $end
$var wire 1 > a $end
$var wire 1 N b $end
$var wire 1 %" c_in $end
$var wire 1 & s $end
$var wire 1 9" c_out $end
$var wire 1 :" w1 $end
$var wire 1 ;" w2 $end
$var wire 1 <" w3 $end

$scope module N1 $end
$var wire 1 :" out $end
$var wire 1 > in1 $end
$var wire 1 N in2 $end
$upscope $end

$scope module N2 $end
$var wire 1 & out $end
$var wire 1 :" in1 $end
$var wire 1 %" in2 $end
$upscope $end

$scope module NA1 $end
$var wire 1 ;" out $end
$var wire 1 > in1 $end
$var wire 1 N in2 $end
$upscope $end

$scope module NA2 $end
$var wire 1 <" out $end
$var wire 1 %" in1 $end
$var wire 1 :" in2 $end
$upscope $end

$scope module NA3 $end
$var wire 1 9" out $end
$var wire 1 ;" in1 $end
$var wire 1 <" in2 $end
$upscope $end
$upscope $end

$scope module iDUT_4 $end
$var wire 1 = a $end
$var wire 1 M b $end
$var wire 1 $" c_in $end
$var wire 1 % s $end
$var wire 1 =" c_out $end
$var wire 1 >" w1 $end
$var wire 1 ?" w2 $end
$var wire 1 @" w3 $end

$scope module N1 $end
$var wire 1 >" out $end
$var wire 1 = in1 $end
$var wire 1 M in2 $end
$upscope $end

$scope module N2 $end
$var wire 1 % out $end
$var wire 1 >" in1 $end
$var wire 1 $" in2 $end
$upscope $end

$scope module NA1 $end
$var wire 1 ?" out $end
$var wire 1 = in1 $end
$var wire 1 M in2 $end
$upscope $end

$scope module NA2 $end
$var wire 1 @" out $end
$var wire 1 $" in1 $end
$var wire 1 >" in2 $end
$upscope $end

$scope module NA3 $end
$var wire 1 =" out $end
$var wire 1 ?" in1 $end
$var wire 1 @" in2 $end
$upscope $end
$upscope $end
$upscope $end
$upscope $end
$upscope $end
$enddefinitions $end
#0
$dumpvars
b11010100100100 !
b101111010000001 "
bx #
1$
19
1:
b10000 <
b100 a
b100 *!
b100 Q!
b100 x!
b1 ;
04
13
12
01
00
1/
0.
1-
1,
1+
0*
0)
1(
0'
0&
1%
05
16
17
z8
0`
0_
1^
0e
1d
0c
1b
0i
0h
0g
0f
1m
0l
0k
zj
1n
0o
0p
0q
0r
0s
0t
0u
0v
0w
1y
1z
0{
0}
1~
1!!
1#!
1$!
1%!
0'!
1(!
1)!
1.!
0-!
1,!
0+!
02!
01!
00!
0/!
06!
05!
04!
z3!
07!
08!
09!
0:!
0;!
0<!
0=!
0>!
0?!
0@!
0B!
1C!
1D!
1F!
1G!
1H!
0J!
1K!
1L!
1N!
1O!
1P!
1U!
0T!
1S!
1R!
0Y!
1X!
0W!
0V!
0]!
0\!
1[!
zZ!
0^!
0_!
0`!
0a!
0b!
0c!
1d!
0e!
0f!
0g!
1i!
1j!
1k!
1m!
1n!
1o!
0q!
0r!
1s!
1u!
1v!
0w!
0|!
1{!
1z!
0y!
0""
0!"
0~!
1}!
1&"
1%"
1$"
z#"
0'"
1("
0)"
0*"
1+"
0,"
0-"
0."
0/"
00"
02"
03"
14"
16"
17"
08"
1:"
1;"
0<"
0>"
1?"
1@"
1]
1\
0[
0Z
0Y
0X
0W
0V
1U
0T
1S
1R
1Q
1P
0O
1N
0M
0L
0K
1J
0I
0H
1G
0F
0E
1D
0C
1B
0A
1@
1?
0>
0=
1x
0|
0"!
0&!
0A!
0E!
0I!
0M!
0h!
0l!
1p!
1t!
11"
15"
19"
0="
$end
#50
09
06
b1001001110100110 #
#100
19
16
b101011001100011 !
b111101100001101 "
b10 ;
1Z
1Y
0U
1T
0R
1O
1L
1K
0J
1F
0D
1C
0?
1>
0:"
0;"
0m!
0n!
1J!
1}
0y
0z
1q!
1r!
0N!
1'!
11
0-
0p!
1*
14
1{
03
0!!
1.
1l!
0+
1&
1<"
1|
1e
0.!
0X!
1T!
1f
0b
1c
1-!
1W!
0S!
1!"
0{!
1v
0d!
0[!
1e!
1a!
1r
1o
0m
0n
1\!
0$"
0+"
0%
0*
0s!
13
1!!
1)
1w!
0t!
0|
1p!
1`
1[!
1k
1l
1m
1$"
1%
03
0!!
02
0%!
01
0)!
0)
0w!
10
1t!
1&!
1"!
1|
#150
09
06
b1101000101110001 #
#200
19
16
b1000010001100101 !
b101001000010010 "
b11 ;
0\
1[
0Z
0Y
1X
0T
0Q
0O
0K
1J
0C
0@
0>
1=
1>"
1:"
1;"
12"
13"
1m!
1n!
06"
0u!
0i!
1B!
0'!
1y
1z
0x
04
0{
11
1)!
00
0D!
0,
1)
1w!
1'
18"
0l!
1+
01"
0(
04"
09"
0&
0<"
0%
0@"
1="
19"
11"
05"
0t!
1A!
0&!
1x
0f
1b
0e
1+!
0R!
0U!
0z!
0W!
1S!
0}!
1y!
0!"
1{!
1|!
0v
0r
0o
0m
1s
1p
1n
1<!
19!
17!
0e!
0("
0a!
0\!
0&"
1'"
0$"
1%
1@"
0'
1*
1s!
13
1!!
0|
0p!
0="
0`
1m
14!
15!
16!
0^
0%"
0[!
1&"
1'
0)
1&
1<"
1(
14"
0/
0H!
0.
0L!
1-
03
0!!
10
1D!
0A!
1|
1I!
1E!
01"
09"
0<!
09!
07!
0'"
04!
05!
06!
0&"
0'
1/
1H!
1.
1L!
0-
0I!
0E!
#201
0:
07
#250
09
06
b1101011001111000 #
#300
19
16
b1100110100001101 !
b1111000101110110 "
b100 ;
1Z
1W
1V
1T
0S
1O
1M
1I
0G
0F
1D
1A
1>
0:"
0;"
1u!
0j!
1'!
0>"
0?"
16"
0m!
0#!
0$!
12
1%!
0+
1'
1="
0%
01
0)!
1h!
1)
19"
0&
1&!
1h
0d
1V!
0S!
1z!
1""
0|!
1e
1U!
1!"
0{!
1t
0k
0s
1]!
15
1$"
1%
1+
11
1)!
0&!
1`
1k
01
0)!
00
0D!
1A!
1&!
1<!
19!
17!
14!
15!
16!
0/
0H!
0.
0L!
1-
1I!
1E!
#350
09
06
b11011111010000100 #
#400
19
16
b101011111101101 !
b1111011110001100 "
b101 ;
0[
1Y
0X
0W
0V
1U
1S
1R
1G
1F
1E
1C
0A
1@
0=
1>"
1?"
02"
03"
0u!
0n!
0O!
0q!
0r!
0B!
0'!
0(!
0}
13
1!!
11
1)!
10
1D!
1p!
0*
1M!
1l!
0)
11"
0(
0="
0%
0@"
1="
0A!
0|
0c
1i
0e
0+!
12!
1W!
1X!
0T!
0U!
1}!
0y!
0""
1|!
0p
0`
0t
0<!
09!
07!
1_
1\!
1[!
1("
1&"
05
1-"
0'
08"
1)
1*
1,
00
15"
0l
1`
04!
05!
06!
1%"
15
1&
1/
1H!
1.
1L!
0-
10
02
0I!
0E!
#450
09
06
b10100111101111010 #
#500
19
16
b10010011000110 !
b1000010011000101 "
0$
b110 ;
1\
0Y
1V
0T
0S
0P
0O
0N
0L
1K
0I
0G
0D
0C
0@
1?
0>
0]
14
1{
0F!
1}
1;"
13"
1n!
1j!
0J!
0K!
1(!
0&!
1I!
0.
0h!
0l!
01"
09"
03
0!!
0/
0x
1|
0i
11!
0-!
0V!
0W!
0}!
0!"
1c
0,!
0n
0`
14!
0]!
0\!
0("
0&"
0-"
0$"
0m
13
1!!
1%
1@"
1'
18"
0*
0+
1-
00
05"
0="
0|
0%"
05
0&
#550
09
06
b1010100110001011 #
#600
19
16
b1111011111100101 !
b111001001110111 "
b111 ;
1[
1X
1W
0U
1S
0R
1P
1O
1N
0M
1L
0K
1G
1D
1C
1@
1>
1=
0;"
03"
0n!
1i!
0G!
0y
0z
06"
07"
1q!
1r!
1N!
1O!
1B!
10
0M!
0-
0P!
0p!
1*
15"
0'
1x
04
1E!
0,
0k!
1l!
11"
19"
1h!
1M!
1+!
10!
02!
1.!
1W!
0X!
1T!
1}!
1~!
0z!
1!"
1f
0b
1R!
15!
0_
1=!
1a!
1\!
0[!
1&"
1%"
1-"
1$"
1o
1m
1^!
03
0!!
0%
0@"
1&
1'
0)
0*
0s!
1,
1k!
1.
0h!
1p!
1="
1|
0^!
1_
1[!
15
1l
1]!
1+
12
1)
0,
0k!
1h!
0]!
1^!
0+
1]!
1+
#650
09
06
b10110101001011100 #
#700
19
16
b1101101110001111 !
b110100111110010 "
b1000 ;
0\
0Z
1U
1T
0S
1Q
0P
1K
1I
0G
0F
0B
1A
0?
16"
17"
0v!
0q!
1J!
1K!
1F!
1G!
1'!
0}
0~
12"
13"
1m!
1n!
0i!
0j!
0N!
0O!
1#!
1$!
1y
1z
0x
14
0"!
02
0%!
1-
1P!
1,
1k!
0l!
0+
0o!
01"
1(
13
1!!
01
0)!
0E!
1/
0I!
0.
0L!
1*
1s!
1t!
05"
0'
08"
15"
0p!
1I!
1&!
1l!
1"!
0f
1b
0h
1d
12!
0.!
1V!
0R!
0W!
1S!
1Y!
0}!
1y!
1g
0c
1e
00!
1,!
01!
1-!
0T!
0~!
1z!
0o
0m
0k
1u
1q
0_
0=!
1_!
0]!
0^!
0a!
0\!
1^
0&"
0l
05!
04!
0%"
0&
0-
1.
1L!
12
1%!
1'
18"
0(
04"
0*
1+
1o!
0,
11
1)!
03
0&!
0l!
11"
05"
0"!
0I!
1l
1`
1k
1_
1\!
1]!
0[!
1)"
1'"
0)
0+
0o!
1*
1,
01
0)!
00
0D!
02
0%!
1"!
1A!
1&!
1l!
1<!
19!
17!
1%"
1&"
0'
08"
1&
15"
14!
15!
16!
0/
0H!
0.
0L!
1-
1I!
1E!
#750
09
06
b10100010110000001 #
#800
19
16
b111101011101000 !
b100111011000101 "
b1001 ;
1\
0[
1Z
0X
0W
0T
1S
1R
0O
0L
0K
0J
1G
1F
0D
1?
0=
0>"
0J!
0K!
1q!
0m!
0n!
1j!
0B!
1~
0|
10
1D!
0h!
1+
1o!
0*
0s!
1.
1L!
1%
1@"
0="
1p!
0A!
0g
0+!
0V!
1W!
0S!
1T!
11!
0-!
0|!
0u
0q
0l
0<!
09!
07!
0_!
0]!
1a!
0\!
04!
0-"
0-
1*
1s!
0+
12
1%!
0"!
0p!
0`
0k
14!
05!
06!
1\!
1[!
05
1)
0*
0s!
1/
1H!
0.
1-
11
1)!
00
0&!
0E!
1p!
#850
09
06
b1100100110101101 #
