Assignments/hw1/hw1_1/dump.vcd
$date
	Thu Sep 22 19:09:55 2022
$end
$version
	ModelSim Version 10.4d
$end
$timescale
	1ps
$end

$scope module quaddemux1_4_bench $end
$var reg 4 ! Inp [3:0] $end
$var reg 2 " S [1:0] $end
$var wire 1 # OutA [3] $end
$var wire 1 $ OutA [2] $end
$var wire 1 % OutA [1] $end
$var wire 1 & OutA [0] $end
$var wire 1 ' OutB [3] $end
$var wire 1 ( OutB [2] $end
$var wire 1 ) OutB [1] $end
$var wire 1 * OutB [0] $end
$var wire 1 + OutC [3] $end
$var wire 1 , OutC [2] $end
$var wire 1 - OutC [1] $end
$var wire 1 . OutC [0] $end
$var wire 1 / OutD [3] $end
$var wire 1 0 OutD [2] $end
$var wire 1 1 OutD [1] $end
$var wire 1 2 OutD [0] $end
$var wire 1 3 Clk $end
$var wire 1 4 Rst $end
$var wire 1 5 Err $end

$scope module my_clkrst $end
$var reg 1 6 clk $end
$var reg 1 7 rst $end
$var wire 1 5 err $end
$var integer 32 8 cycle_count $end
$upscope $end

$scope module DUT $end
$var wire 1 9 Inp [3] $end
$var wire 1 : Inp [2] $end
$var wire 1 ; Inp [1] $end
$var wire 1 < Inp [0] $end
$var wire 1 = S [1] $end
$var wire 1 > S [0] $end
$var wire 1 # OutA [3] $end
$var wire 1 $ OutA [2] $end
$var wire 1 % OutA [1] $end
$var wire 1 & OutA [0] $end
$var wire 1 ' OutB [3] $end
$var wire 1 ( OutB [2] $end
$var wire 1 ) OutB [1] $end
$var wire 1 * OutB [0] $end
$var wire 1 + OutC [3] $end
$var wire 1 , OutC [2] $end
$var wire 1 - OutC [1] $end
$var wire 1 . OutC [0] $end
$var wire 1 / OutD [3] $end
$var wire 1 0 OutD [2] $end
$var wire 1 1 OutD [1] $end
$var wire 1 2 OutD [0] $end

$scope module DEM1 $end
$var wire 1 < Inp $end
$var wire 1 = S [1] $end
$var wire 1 > S [0] $end
$var wire 1 & OutA $end
$var wire 1 * OutB $end
$var wire 1 . OutC $end
$var wire 1 2 OutD $end
$var wire 1 ? W1 $end
$var wire 1 @ W2 $end
$var wire 1 A w1 $end

$scope module D1 $end
$var wire 1 < Inp $end
$var wire 1 = S $end
$var wire 1 A OutA $end
$var wire 1 @ OutB $end
$var wire 1 B W1 $end
$var wire 1 C W2 $end
$var wire 1 D W3 $end

$scope module N1 $end
$var wire 1 < in1 $end
$var wire 1 = in2 $end
$var wire 1 B out $end
$upscope $end

$scope module N2 $end
$var wire 1 < in1 $end
$var wire 1 D in2 $end
$var wire 1 C out $end
$upscope $end

$scope module No3 $end
$var wire 1 = in1 $end
$var wire 1 D out $end
$upscope $end

$scope module No1 $end
$var wire 1 B in1 $end
$var wire 1 A out $end
$upscope $end

$scope module No2 $end
$var wire 1 C in1 $end
$var wire 1 @ out $end
$upscope $end
$upscope $end

$scope module D2 $end
$var wire 1 ? Inp $end
$var wire 1 > S $end
$var wire 1 2 OutA $end
$var wire 1 . OutB $end
$var wire 1 E W1 $end
$var wire 1 F W2 $end
$var wire 1 G W3 $end

$scope module N1 $end
$var wire 1 ? in1 $end
$var wire 1 > in2 $end
$var wire 1 E out $end
$upscope $end

$scope module N2 $end
$var wire 1 ? in1 $end
$var wire 1 G in2 $end
$var wire 1 F out $end
$upscope $end

$scope module No3 $end
$var wire 1 > in1 $end
$var wire 1 G out $end
$upscope $end

$scope module No1 $end
$var wire 1 E in1 $end
$var wire 1 2 out $end
$upscope $end

$scope module No2 $end
$var wire 1 F in1 $end
$var wire 1 . out $end
$upscope $end
$upscope $end

$scope module D3 $end
$var wire 1 @ Inp $end
$var wire 1 > S $end
$var wire 1 * OutA $end
$var wire 1 & OutB $end
$var wire 1 H W1 $end
$var wire 1 I W2 $end
$var wire 1 J W3 $end

$scope module N1 $end
$var wire 1 @ in1 $end
$var wire 1 > in2 $end
$var wire 1 H out $end
$upscope $end

$scope module N2 $end
$var wire 1 @ in1 $end
$var wire 1 J in2 $end
$var wire 1 I out $end
$upscope $end

$scope module No3 $end
$var wire 1 > in1 $end
$var wire 1 J out $end
$upscope $end

$scope module No1 $end
$var wire 1 H in1 $end
$var wire 1 * out $end
$upscope $end

$scope module No2 $end
$var wire 1 I in1 $end
$var wire 1 & out $end
$upscope $end
$upscope $end
$upscope $end

$scope module DEM2 $end
$var wire 1 ; Inp $end
$var wire 1 = S [1] $end
$var wire 1 > S [0] $end
$var wire 1 % OutA $end
$var wire 1 ) OutB $end
$var wire 1 - OutC $end
$var wire 1 1 OutD $end
$var wire 1 K W1 $end
$var wire 1 L W2 $end
$var wire 1 M w1 $end

$scope module D1 $end
$var wire 1 ; Inp $end
$var wire 1 = S $end
$var wire 1 M OutA $end
$var wire 1 L OutB $end
$var wire 1 N W1 $end
$var wire 1 O W2 $end
$var wire 1 P W3 $end

$scope module N1 $end
$var wire 1 ; in1 $end
$var wire 1 = in2 $end
$var wire 1 N out $end
$upscope $end

$scope module N2 $end
$var wire 1 ; in1 $end
$var wire 1 P in2 $end
$var wire 1 O out $end
$upscope $end

$scope module No3 $end
$var wire 1 = in1 $end
$var wire 1 P out $end
$upscope $end

$scope module No1 $end
$var wire 1 N in1 $end
$var wire 1 M out $end
$upscope $end

$scope module No2 $end
$var wire 1 O in1 $end
$var wire 1 L out $end
$upscope $end
$upscope $end

$scope module D2 $end
$var wire 1 K Inp $end
$var wire 1 > S $end
$var wire 1 1 OutA $end
$var wire 1 - OutB $end
$var wire 1 Q W1 $end
$var wire 1 R W2 $end
$var wire 1 S W3 $end

$scope module N1 $end
$var wire 1 K in1 $end
$var wire 1 > in2 $end
$var wire 1 Q out $end
$upscope $end

$scope module N2 $end
$var wire 1 K in1 $end
$var wire 1 S in2 $end
$var wire 1 R out $end
$upscope $end

$scope module No3 $end
$var wire 1 > in1 $end
$var wire 1 S out $end
$upscope $end

$scope module No1 $end
$var wire 1 Q in1 $end
$var wire 1 1 out $end
$upscope $end

$scope module No2 $end
$var wire 1 R in1 $end
$var wire 1 - out $end
$upscope $end
$upscope $end

$scope module D3 $end
$var wire 1 L Inp $end
$var wire 1 > S $end
$var wire 1 ) OutA $end
$var wire 1 % OutB $end
$var wire 1 T W1 $end
$var wire 1 U W2 $end
$var wire 1 V W3 $end

$scope module N1 $end
$var wire 1 L in1 $end
$var wire 1 > in2 $end
$var wire 1 T out $end
$upscope $end

$scope module N2 $end
$var wire 1 L in1 $end
$var wire 1 V in2 $end
$var wire 1 U out $end
$upscope $end

$scope module No3 $end
$var wire 1 > in1 $end
$var wire 1 V out $end
$upscope $end

$scope module No1 $end
$var wire 1 T in1 $end
$var wire 1 ) out $end
$upscope $end

$scope module No2 $end
$var wire 1 U in1 $end
$var wire 1 % out $end
$upscope $end
$upscope $end
$upscope $end

$scope module DEM3 $end
$var wire 1 : Inp $end
$var wire 1 = S [1] $end
$var wire 1 > S [0] $end
$var wire 1 $ OutA $end
$var wire 1 ( OutB $end
$var wire 1 , OutC $end
$var wire 1 0 OutD $end
$var wire 1 W W1 $end
$var wire 1 X W2 $end
$var wire 1 Y w1 $end

$scope module D1 $end
$var wire 1 : Inp $end
$var wire 1 = S $end
$var wire 1 Y OutA $end
$var wire 1 X OutB $end
$var wire 1 Z W1 $end
$var wire 1 [ W2 $end
$var wire 1 \ W3 $end

$scope module N1 $end
$var wire 1 : in1 $end
$var wire 1 = in2 $end
$var wire 1 Z out $end
$upscope $end

$scope module N2 $end
$var wire 1 : in1 $end
$var wire 1 \ in2 $end
$var wire 1 [ out $end
$upscope $end

$scope module No3 $end
$var wire 1 = in1 $end
$var wire 1 \ out $end
$upscope $end

$scope module No1 $end
$var wire 1 Z in1 $end
$var wire 1 Y out $end
$upscope $end

$scope module No2 $end
$var wire 1 [ in1 $end
$var wire 1 X out $end
$upscope $end
$upscope $end

$scope module D2 $end
$var wire 1 W Inp $end
$var wire 1 > S $end
$var wire 1 0 OutA $end
$var wire 1 , OutB $end
$var wire 1 ] W1 $end
$var wire 1 ^ W2 $end
$var wire 1 _ W3 $end

$scope module N1 $end
$var wire 1 W in1 $end
$var wire 1 > in2 $end
$var wire 1 ] out $end
$upscope $end

$scope module N2 $end
$var wire 1 W in1 $end
$var wire 1 _ in2 $end
$var wire 1 ^ out $end
$upscope $end

$scope module No3 $end
$var wire 1 > in1 $end
$var wire 1 _ out $end
$upscope $end

$scope module No1 $end
$var wire 1 ] in1 $end
$var wire 1 0 out $end
$upscope $end

$scope module No2 $end
$var wire 1 ^ in1 $end
$var wire 1 , out $end
$upscope $end
$upscope $end

$scope module D3 $end
$var wire 1 X Inp $end
$var wire 1 > S $end
$var wire 1 ( OutA $end
$var wire 1 $ OutB $end
$var wire 1 ` W1 $end
$var wire 1 a W2 $end
$var wire 1 b W3 $end

$scope module N1 $end
$var wire 1 X in1 $end
$var wire 1 > in2 $end
$var wire 1 ` out $end
$upscope $end

$scope module N2 $end
$var wire 1 X in1 $end
$var wire 1 b in2 $end
$var wire 1 a out $end
$upscope $end

$scope module No3 $end
$var wire 1 > in1 $end
$var wire 1 b out $end
$upscope $end

$scope module No1 $end
$var wire 1 ` in1 $end
$var wire 1 ( out $end
$upscope $end

$scope module No2 $end
$var wire 1 a in1 $end
$var wire 1 $ out $end
$upscope $end
$upscope $end
$upscope $end

$scope module DEM4 $end
$var wire 1 9 Inp $end
$var wire 1 = S [1] $end
$var wire 1 > S [0] $end
$var wire 1 # OutA $end
$var wire 1 ' OutB $end
$var wire 1 + OutC $end
$var wire 1 / OutD $end
$var wire 1 c W1 $end
$var wire 1 d W2 $end
$var wire 1 e w1 $end

$scope module D1 $end
$var wire 1 9 Inp $end
$var wire 1 = S $end
$var wire 1 e OutA $end
$var wire 1 d OutB $end
$var wire 1 f W1 $end
$var wire 1 g W2 $end
$var wire 1 h W3 $end

$scope module N1 $end
$var wire 1 9 in1 $end
$var wire 1 = in2 $end
$var wire 1 f out $end
$upscope $end

$scope module N2 $end
$var wire 1 9 in1 $end
$var wire 1 h in2 $end
$var wire 1 g out $end
$upscope $end

$scope module No3 $end
$var wire 1 = in1 $end
$var wire 1 h out $end
$upscope $end

$scope module No1 $end
$var wire 1 f in1 $end
$var wire 1 e out $end
$upscope $end

$scope module No2 $end
$var wire 1 g in1 $end
$var wire 1 d out $end
$upscope $end
$upscope $end

$scope module D2 $end
$var wire 1 c Inp $end
$var wire 1 > S $end
$var wire 1 / OutA $end
$var wire 1 + OutB $end
$var wire 1 i W1 $end
$var wire 1 j W2 $end
$var wire 1 k W3 $end

$scope module N1 $end
$var wire 1 c in1 $end
$var wire 1 > in2 $end
$var wire 1 i out $end
$upscope $end

$scope module N2 $end
$var wire 1 c in1 $end
$var wire 1 k in2 $end
$var wire 1 j out $end
$upscope $end

$scope module No3 $end
$var wire 1 > in1 $end
$var wire 1 k out $end
$upscope $end

$scope module No1 $end
$var wire 1 i in1 $end
$var wire 1 / out $end
$upscope $end

$scope module No2 $end
$var wire 1 j in1 $end
$var wire 1 + out $end
$upscope $end
$upscope $end

$scope module D3 $end
$var wire 1 d Inp $end
$var wire 1 > S $end
$var wire 1 ' OutA $end
$var wire 1 # OutB $end
$var wire 1 l W1 $end
$var wire 1 m W2 $end
$var wire 1 n W3 $end

$scope module N1 $end
$var wire 1 d in1 $end
$var wire 1 > in2 $end
$var wire 1 l out $end
$upscope $end

$scope module N2 $end
$var wire 1 d in1 $end
$var wire 1 n in2 $end
$var wire 1 m out $end
$upscope $end

$scope module No3 $end
$var wire 1 > in1 $end
$var wire 1 n out $end
$upscope $end

$scope module No1 $end
$var wire 1 l in1 $end
$var wire 1 ' out $end
$upscope $end

$scope module No2 $end
$var wire 1 m in1 $end
$var wire 1 # out $end
$upscope $end
$upscope $end
$upscope $end
$upscope $end
$upscope $end
$enddefinitions $end
#0
$dumpvars
b100 !
b1 "
16
17
b1 8
0&
0%
0$
0#
0*
0)
1(
0'
0.
0-
0,
0+
x2
x1
x0
x/
13
14
z5
z?
0@
0A
1B
1C
1D
xE
1F
0G
1H
1I
0J
zK
0L
0M
1N
1O
1P
xQ
1R
0S
1T
1U
0V
zW
1X
0Y
1Z
0[
1\
x]
1^
0_
0`
1a
0b
zc
0d
0e
1f
1g
1h
xi
1j
0k
1l
1m
0n
1>
0=
0<
0;
1:
09
$end
#50
06
03
#100
16
13
b1001 !
b11 "
b10 8
1=
1<
0:
19
0f
0g
1[
0B
0C
0D
0P
0\
0h
1g
1C
1A
0X
1e
1`
0(
#150
06
03
#200
16
13
b1101 !
b1 "
b11 8
0=
1:
1B
1D
1P
1\
1f
1h
0g
0e
0[
0C
0A
1@
1X
1d
0l
0`
0H
1*
1(
1'
#201
07
04
#250
06
03
#300
16
13
b101 !
b10 "
b100 8
0>
1=
09
1g
0B
0D
0P
0Z
0\
0h
1E
1G
1H
1J
1Q
1S
1V
1]
1_
1`
1b
1i
1k
1l
1n
0m
0'
xj
0/
0a
0(
x^
00
xR
01
0I
0*
xF
02
1[
1Y
1C
1A
0d
1m
0@
0X
x.
1&
x-
x,
1$
x+
1a
1I
0&
0$
#350
06
03
#400
16
13
b1 !
b1 "
b101 8
1>
0=
0:
1B
1D
1P
1Z
1\
1h
xE
0G
0J
xQ
0S
0V
x]
0_
0b
xi
0k
0n
1j
x/
1^
x0
1R
x1
1F
x2
0Y
0C
0A
1@
0.
0-
0,
0+
0H
1*
#450
06
03
#500
16
13
b110 !
b110 8
0<
1;
1:
0[
0O
1C
0@
1L
1X
0`
0T
1H
0*
1)
1(
#550
06
03
#600
16
13
b1101 !
b0 "
b111 8
0>
1<
0;
19
0g
1O
0C
1E
1G
1J
1Q
1S
1T
1V
1]
1_
1`
1b
1i
1k
1n
xj
0/
0a
0(
x^
00
0U
0)
xR
01
xF
02
1@
0L
1d
0m
1U
0I
x.
x-
x,
1$
x+
1&
1#
#650
06
03
#700
16
13
b1001 !
b10 "
b1000 8
1=
0:
1[
0B
0D
0P
0\
0f
0h
1g
1e
1C
1A
0X
1a
0@
0d
1m
1I
0$
0&
0#
#750
06
03
#800
16
13
b101 !
b1001 8
1:
09
1f
0Z
1Y
0e
#850
06
03
#900
16
13
b11 "
b1010 8
1>
xE
0G
0J
xQ
0S
0V
x]
0_
0b
xi
0k
0n
1j
x/
1^
x0
1R
x1
1F
x2
0.
0-
0,
0+
#950
06
03
#1000
16
13
b10 !
b1011 8
0<
1;
0:
1Z
0N
1B
0A
1M
0Y
#1050
06
03
#1100
16
13
b10 "
b1100 8
0>
1E
1G
1J
1Q
1S
1V
1]
1_
1b
1i
1k
1n
xj
0/
x^
00
xR
01
xF
02
x.
x-
x,
x+
#1150
06
03
#1200
16
13
b1000 !
b1 "
b1101 8
1>
0=
0;
19
1D
1N
1P
1\
1h
xE
0G
0J
xQ
0S
0V
x]
0_
0b
xi
0k
0n
1j
x/
1^
x0
1R
x1
1F
x2
0g
0M
1d
0.
0-
0,
0+
0l
1'
#1250
06
03
#1300
16
13
b1100 !
b1110 8
1:
0[
1X
0`
1(
#1350
06
03
#1400
16
13
b1101 !
b1111 8
1<
0C
1@
0H
1*
#1450
06
03
#1500
16
13
b11 !
b10 "
b10000 8
0>
1=
1;
0:
09
1g
1[
0N
0O
0B
0D
0P
0\
0h
1E
1G
1H
1J
1Q
1S
1V
1]
1_
1`
1b
1i
1k
1l
1n
0m
0'
xj
0/
0a
0(
x^
00
xR
01
0I
0*
xF
02
1O
1C
1A
1M
0X
0d
1m
1a
0@
x.
1&
x-
x,
x+
1I
0&
#1550
06
03
#1600
16
13
b0 !
b0 "
b10001 8
0=
0<
0;
1B
1D
1N
1P
1\
1h
0M
0A
#1650
06
03
#1700
16
13
b1010 !
b1 "
b10010 8
1>
1;
19
0g
0O
xE
0G
0J
xQ
0S
0V
x]
0_
0b
xi
0k
0n
1j
x/
1^
x0
1R
x1
1F
x2
1L
1d
0l
0T
0.
0-
0,
0+
1)
1'
#1750
06
03
#1800
16
13
b110 !
b11 "
b10011 8
1=
1:
09
1g
0Z
0[
0D
0N
0P
0\
0h
1[
1O
1M
1Y
0d
1l
0L
1T
0'
0)
#1850
06
03
#1900
16
13
b1101 !
b10100 8
1<
0;
19
0f
1N
0B
1A
0M
1e
#1950
06
03
#2000
16
13
b1011 !
b1 "
b10101 8
0=
1;
0:
1B
1D
1P
1Z
1\
1f
1h
0g
0e
0Y
0O
0C
0A
1@
1L
1d
0l
0T
0H
1*
1)
1'
#2050
06
03
#2100
16
13
b10 !
b10 "
b10110 8
0>
1=
0<
09
1g
1C
0D
0N
0P
0\
0h
1E
1G
1H
1J
1Q
1S
1T
1V
1]
1_
1b
1i
1k
1l
1n
0m
0'
xj
0/
x^
00
0U
0)
xR
01
0I
0*
xF
02
1O
1M
0@
0d
1m
1I
0L
x.
x-
1%
x,
x+
1U
0%
#2150
06
03
#2200
16
13
b1101 !
b11 "
b10111 8
1>
1<
0;
1:
19
0f
0Z
1N
0B
xE
0G
0J
xQ
0S
0V
x]
0_
0b
xi
0k
0n
1j
x/
1^
x0
1R
x1
1F
x2
1A
0M
1Y
1e
0.
0-
0,
0+
#2250
06
03
#2300
16
13
b11 !
b10 "
b11000 8
0>
1;
0:
09
1f
1Z
0N
1E
1G
1J
1Q
1S
1V
1]
1_
1b
1i
1k
1n
xj
0/
x^
00
xR
01
xF
02
1M
0Y
0e
x.
x-
x,
x+
#2350
06
03
#2400
16
13
b1010 !
b0 "
b11001 8
0=
0<
19
1B
1D
1N
1P
1\
1h
0g
0O
0M
0A
1L
1d
0m
0U
1%
1#
#2450
06
03
#2500
16
13
b10 !
b10 "
b11010 8
1=
09
1g
0D
0N
0P
0\
0h
1O
1M
0d
1m
0L
1U
0#
0%
#2550
06
03
#2600
16
13
b1 !
b0 "
b11011 8
0=
1<
0;
1D
1N
1P
1\
1h
0M
0C
1@
0I
1&
#2650
06
03
#2700
16
13
b1000 !
b1 "
b11100 8
1>
0<
19
0g
1C
xE
0G
0H
0J
xQ
0S
0V
x]
0_
0b
xi
0k
0n
1j
x/
1^
x0
1R
x1
1I
1*
1F
x2
0@
1d
0l
1H
0.
0&
0-
0,
0+
0*
1'
#2750
06
03
#2800
16
13
b1011 !
b10 "
b11101 8
0>
1=
1<
1;
0N
0O
0B
0C
0D
0P
0\
0f
0h
1E
1G
1J
1Q
1S
1V
1]
1_
1b
1i
1k
1l
1n
0m
0'
xj
0/
x^
00
xR
01
xF
02
1g
1e
1O
1C
1A
1M
0d
x.
x-
x,
x+
1#
1m
0#
#2850
06
03
#2900
16
13
b110 !
b11110 8
0<
1:
09
1f
0Z
1B
0A
1Y
0e
#2950
06
03
#3000
16
13
b1100 !
b11111 8
0;
19
0f
1N
0M
1e
#3050
06
03
#3100
16
13
b1011 !
b1 "
b100000 8
1>
0=
1<
1;
0:
1D
1P
1Z
1\
1f
1h
xE
0G
0J
xQ
0S
0V
x]
0_
0b
xi
0k
0n
1j
x/
1^
x0
1R
x1
1F
x2
0g
0e
0Y
0O
0C
1@
1L
1d
0.
0-
0,
0+
0l
0T
0H
1*
1)
1'
#3150
06
03
#3200
16
13
b101 !
b11 "
b100001 8
1=
0;
1:
09
1g
0Z
0[
1O
0B
0D
0P
0\
0h
1[
1C
1A
0L
1Y
0d
1l
1T
0@
1H
0)
0'
0*
#3250
06
03
#3300
16
13
b1011 !
b10 "
b100010 8
0>
1;
0:
19
0f
1Z
0N
1E
1G
1J
1Q
1S
1V
1]
1_
1b
1i
1k
1n
xj
0/
x^
00
xR
01
xF
02
1M
0Y
1e
x.
x-
x,
x+
#3350
06
03
#3400
16
13
b1110 !
b1 "
b100011 8
1>
0=
0<
1:
1B
1D
1N
1P
1\
1f
1h
xE
0G
0J
xQ
0S
0V
x]
0_
0b
xi
0k
0n
1j
x/
1^
x0
1R
x1
1F
x2
0g
0e
0[
0O
0M
0A
1L
1X
1d
0.
0-
0,
0+
0l
0`
0T
1)
1(
1'
#3450
06
03
#3500
16
13
b1 !
b100100 8
1<
0;
0:
09
1g
1[
1O
0C
1@
0L
0X
0d
1l
1`
1T
0H
1*
0)
0(
0'
#3550
06
03
#3600
16
13
b10 !
b0 "
b100101 8
0>
0<
1;
0O
1C
1E
1G
1H
1J
1Q
1S
1V
1]
1_
1b
1i
1k
1n
xj
0/
x^
00
xR
01
0I
0*
xF
02
0@
1L
0U
1I
x.
x-
x,
x+
1%
#3650
06
03
#3700
16
13
b1111 !
b11 "
b100110 8
1>
1=
1<
1:
19
0f
0g
0Z
0[
0B
0C
0D
0N
0P
0\
0h
xE
0G
0J
xQ
0S
0T
0V
x]
0_
0b
xi
0k
0n
1j
x/
1^
x0
1U
1)
1R
x1
1F
x2
1g
1[
1O
1M
1C
1A
1Y
1e
0L
0.
0-
0%
0,
0+
1T
0)
#3750
06
03
#3800
16
13
b1000 !
b100111 8
0<
0;
0:
1Z
1N
1B
0A
0M
0Y
#3850
06
03
#3900
16
13
b1111 !
b0 "
b101000 8
0>
0=
1<
1;
1:
1D
1P
1\
1f
1h
1E
1G
1J
1Q
1S
1V
1]
1_
1b
1i
1k
1n
xj
0/
x^
00
xR
01
xF
02
0g
0e
0[
0O
0C
1@
1L
1X
1d
x.
x-
x,
x+
0m
0a
0U
0I
1&
1%
1$
1#
